RNA-seq analysis in R
…
Explain and view everything that has been loaded

Briefly sample info tab: status, celltype, 2 reps

ls() # lists all loaded objects

## [1] "countdata"  "sampleinfo"

dim(countdata)

## [1] 25369    12

sampleinfo

## # A tibble: 12 x 4
##   FileName    Sample  CellType Status  
##   <chr>       <chr>   <chr>    <chr>   
## 1 MCL1.DG.bam MCL1.DG basal    virgin  
## 2 MCL1.DH.bam MCL1.DH basal    virgin  
## 3 MCL1.DI.bam MCL1.DI basal    pregnant
## #  with 9 more rows
…
