RNA-seq analysis in R
…
Reading in the count data

The raw reads were aligned using HISAT2 (Kim, Langmead, and Salzberg 2015) to the GRCm38 mouse reference genome from Ensembl. featureCounts (Liao, Smyth, and Shi 2014) was used to count reads against the Ensembl gene annotation and generate a counts matrix (as described in the previous session).

First we need to read the data into R from the file kept in the data directory.

# Read the data into R
seqdata <- read_tsv("data/GSE60450_Lactation.featureCounts", comment="#")
seqdata

## # A tibble: 55,573 x 18
##    Geneid Chr   Start End   Strand Length MCL1.DG.bam MCL1.DH.bam MCL1.DI.bam
##    <chr>  <chr> <chr> <chr> <chr>   <dbl>       <dbl>       <dbl>       <dbl>
##  1 ENSMU 1     3073 3074 +        1070           0           0           0
##  2 ENSMU 1     3102 3102 +         110           0           0           0
##  3 ENSMU 1;1; 3205 3207 -;-;-   6094         665         448          86
##  4 ENSMU 1     3252 3253 +         480           0           0           0
##  5 ENSMU 1     3365 3368 -        2819           0           0           0
##  6 ENSMU 1     3375 3377 -        2233           0           0           0
##  7 ENSMU 1     3464 3467 -        2309           1           0           1
##  8 ENSMU 1;1   3466 3466 +;+       250           0           0           0
##  9 ENSMU 1     3512 3514 -        2057           0           2           0
## 10 ENSMU 1     3531 3532 +         926           0           0           0
## #  with 55,563 more rows, and 9 more variables: MCL1.DJ.bam <dbl>,
## #   MCL1.DK.bam <dbl>, MCL1.DL.bam <dbl>, MCL1.LA.bam <dbl>, MCL1.LB.bam <dbl>,
## #   MCL1.LC.bam <dbl>, MCL1.LD.bam <dbl>, MCL1.LE.bam <dbl>, MCL1.LF.bam <dbl>
…
